<?xml version="1.0" encoding="ISO-8859-1" standalone="no"?>

<svg 
     version="1.1"
     baseProfile="full"
     xmlns="http://www.w3.org/2000/svg"
     xmlns:xlink="http://www.w3.org/1999/xlink"
     xmlns:ev="http://www.w3.org/2001/xml-events"
     width="14.11111111111111cm"
     height="9.525cm"
     viewBox="0 0 817 551"
     >
<title>

</title>
<g stroke-linejoin="miter" stroke-dashoffset="0.0000" stroke-dasharray="none" stroke-width="1.0000" stroke-miterlimit="10.000" stroke-linecap="square">
<g id="misc">
</g><!-- misc -->
<g id="layer0">
<g transform="matrix(1.0000, 0.0000, 0.0000, 1.0000, -220.00, -142.00)">
<clipPath id="clip9e26722d-a5d9-47ff-95a6-d4d25b534533">
  <path d="M 220.00 142.00 L 220.00 694.00 L 1037.0 694.00 L 1037.0 142.00 z"/>
</clipPath>
<g clip-path="url(#clip1)">
<g stroke-linejoin="round" stroke-width="2.5000" stroke-linecap="round" fill="none" stroke-opacity=".69804" stroke="#808080">
  <path d="M 364.78 161.07 L 364.78 687.11"/>
<title>Segment f</title>
<desc>Segment f: Segment [AB]</desc>

</g> <!-- drawing style -->
</g> <!-- clip1 -->
</g> <!-- transform -->
<g transform="matrix(1.0000, 0.0000, 0.0000, 1.0000, -220.00, -142.00)">
<clipPath id="clip52964890-6cbf-4e6b-8a3d-778b0b83a8ce">
  <path d="M 220.00 142.00 L 220.00 694.00 L 1037.0 694.00 L 1037.0 142.00 z"/>
</clipPath>
<g clip-path="url(#clip2)">
<g stroke-linejoin="round" stroke-width="2.5000" stroke-linecap="round" fill="none" stroke-opacity=".69804" stroke="#808080">
  <path d="M 233.27 555.60 L 1022.3 555.60"/>
<title>Segment g</title>
<desc>Segment g: Segment [CD]</desc>

</g> <!-- drawing style -->
</g> <!-- clip2 -->
</g> <!-- transform -->
<g transform="matrix(1.0000, 0.0000, 0.0000, 1.0000, -220.00, -142.00)">
<clipPath id="clip295c7e2b-919e-4d09-a331-62d9af8baf2f">
  <path d="M 220.00 142.00 L 220.00 694.00 L 1037.0 694.00 L 1037.0 142.00 z"/>
</clipPath>
<g clip-path="url(#clip3)">
<g stroke-linejoin="round" stroke-width="2.5000" stroke-linecap="round" fill="none" stroke-opacity=".69804" stroke="#808080">
  <path d="M 627.80 687.11 L 627.80 161.07"/>
<title>Segment h</title>
<desc>Segment h: Segment [EF]</desc>

</g> <!-- drawing style -->
</g> <!-- clip3 -->
</g> <!-- transform -->
<g transform="matrix(1.0000, 0.0000, 0.0000, 1.0000, -220.00, -142.00)">
<clipPath id="clipbd72c4cf-f5f7-432d-a881-05a39b3335e7">
  <path d="M 220.00 142.00 L 220.00 694.00 L 1037.0 694.00 L 1037.0 142.00 z"/>
</clipPath>
<g clip-path="url(#clip4)">
<g stroke-linejoin="round" stroke-width="2.5000" stroke-linecap="round" fill="none" stroke-opacity=".69804" stroke="#808080">
  <path d="M 233.27 292.58 L 1022.3 292.58"/>
<title>Segment i</title>
<desc>Segment i: Segment [GH]</desc>

</g> <!-- drawing style -->
</g> <!-- clip4 -->
</g> <!-- transform -->
<g transform="matrix(1.0000, 0.0000, 0.0000, 1.0000, -220.00, -142.00)">
<clipPath id="clip0e7671ba-e151-4462-a976-e8db39a54957">
  <path d="M 220.00 142.00 L 220.00 694.00 L 1037.0 694.00 L 1037.0 142.00 z"/>
</clipPath>
<g clip-path="url(#clip5)">
<g stroke-linejoin="round" stroke-width="2.5000" stroke-linecap="round" fill="none" stroke-opacity=".69804" stroke="#808080">
  <path d="M 890.81 161.07 L 890.81 687.11"/>
<title>Segment j</title>
<desc>Segment j: Segment [IJ]</desc>

</g> <!-- drawing style -->
</g> <!-- clip5 -->
</g> <!-- transform -->
<g transform="matrix(1.0000, 0.0000, 0.0000, 1.0000, -220.00, -142.00)">
<clipPath id="clip1bb276f8-53e0-422e-8a60-f1cac022f1e1">
  <path d="M 220.00 142.00 L 220.00 694.00 L 1037.0 694.00 L 1037.0 142.00 z"/>
</clipPath>
<g clip-path="url(#clip6)">
<g stroke-linejoin="round" stroke-width="4.5000" stroke-linecap="round" fill="none" stroke-opacity=".69804" stroke="#000000">
  <path d="M 890.81 555.60 L 364.78 555.60"/>
<title>Segment k</title>
<desc>Segment k: Segment [KL]</desc>

</g> <!-- drawing style -->
</g> <!-- clip6 -->
</g> <!-- transform -->
<g transform="matrix(1.0000, 0.0000, 0.0000, 1.0000, -220.00, -142.00)">
<clipPath id="clip65ca76e3-6255-4a30-a78c-a9377eaf10fa">
  <path d="M 220.00 142.00 L 220.00 694.00 L 1037.0 694.00 L 1037.0 142.00 z"/>
</clipPath>
<g clip-path="url(#clip7)">
<g stroke-linejoin="round" stroke-width="4.5000" stroke-linecap="round" fill="none" stroke-opacity=".69804" stroke="#000000">
  <path d="M 364.78 555.60 L 364.78 292.58"/>
<title>Segment l</title>
<desc>Segment l: Segment [LM]</desc>

</g> <!-- drawing style -->
</g> <!-- clip7 -->
</g> <!-- transform -->
<g transform="matrix(1.0000, 0.0000, 0.0000, 1.0000, -220.00, -142.00)">
<clipPath id="clip936573a9-077e-4580-b39d-43f338dfdfad">
  <path d="M 220.00 142.00 L 220.00 694.00 L 1037.0 694.00 L 1037.0 142.00 z"/>
</clipPath>
<g clip-path="url(#clip8)">
<g stroke-linejoin="round" stroke-width="4.5000" stroke-linecap="round" fill="none" stroke-opacity=".69804" stroke="#000000">
  <path d="M 364.78 292.58 L 890.81 292.58"/>
<title>Segment m</title>
<desc>Segment m: Segment [MN]</desc>

</g> <!-- drawing style -->
</g> <!-- clip8 -->
</g> <!-- transform -->
<g transform="matrix(1.0000, 0.0000, 0.0000, 1.0000, -220.00, -142.00)">
<clipPath id="clip8f1b67b6-6d86-4d2a-8225-eb903064d1b8">
  <path d="M 220.00 142.00 L 220.00 694.00 L 1037.0 694.00 L 1037.0 142.00 z"/>
</clipPath>
<g clip-path="url(#clip9)">
<g stroke-linejoin="round" stroke-width="4.5000" stroke-linecap="round" fill="none" stroke-opacity=".69804" stroke="#000000">
  <path d="M 890.81 292.58 L 890.81 555.60"/>
<title>Segment n</title>
<desc>Segment n: Segment [NK]</desc>

</g> <!-- drawing style -->
</g> <!-- clip9 -->
</g> <!-- transform -->
<g transform="matrix(1.0000, 0.0000, 0.0000, 1.0000, -220.00, -142.00)">
<clipPath id="clip180930ea-f075-467a-8703-5d74638c88d9">
  <path d="M 220.00 142.00 L 220.00 694.00 L 1037.0 694.00 L 1037.0 142.00 z"/>
</clipPath>
<g clip-path="url(#clip10)">
<g stroke-linejoin="round" stroke-width="4.5000" stroke-linecap="round" fill="none" stroke-opacity=".69804" stroke="#000000">
  <path d="M 627.80 555.60 L 627.80 292.58"/>
<title>Segment p</title>
<desc>Segment p: Segment [OP]</desc>

</g> <!-- drawing style -->
</g> <!-- clip10 -->
</g> <!-- transform -->
<g transform="matrix(1.0000, 0.0000, 0.0000, 1.0000, -220.00, -142.00)">
<clipPath id="clipf377bd5a-653c-4d62-b196-5af9aea17e33">
  <path d="M 220.00 142.00 L 220.00 694.00 L 1037.0 694.00 L 1037.0 142.00 z"/>
</clipPath>
<g clip-path="url(#clip11)">
<g fill-opacity="1.0000" fill-rule="nonzero" stroke="none" fill="#000000">
  <path d="M 669.81 376.97 L 672.84 377.73 Q 671.89 381.47 669.41 383.43 Q 666.94 385.39 663.36 385.39 Q 659.66 385.39 657.34 383.88 Q 655.02 382.38 653.80 379.52 Q 652.59 376.66 652.59 373.38 Q 652.59 369.80 653.96 367.13 Q 655.33 364.47 657.85 363.09 Q 660.38 361.70 663.41 361.70 Q 666.84 361.70 669.19 363.45 Q 671.53 365.20 672.45 368.38 L 669.47 369.08 Q 668.67 366.58 667.16 365.44 Q 665.64 364.30 663.34 364.30 Q 660.70 364.30 658.93 365.56 Q 657.16 366.83 656.44 368.96 Q 655.72 371.09 655.72 373.36 Q 655.72 376.28 656.57 378.46 Q 657.42 380.64 659.22 381.72 Q 661.02 382.80 663.11 382.80 Q 665.66 382.80 667.42 381.33 Q 669.19 379.86 669.81 376.97 z M 687.58 379.66 L 690.48 380.02 Q 689.80 382.56 687.94 383.97 Q 686.08 385.38 683.19 385.38 Q 679.55 385.38 677.41 383.13 Q 675.28 380.89 675.28 376.84 Q 675.28 372.66 677.44 370.34 Q 679.59 368.03 683.03 368.03 Q 686.36 368.03 688.47 370.30 Q 690.58 372.56 690.58 376.67 Q 690.58 376.92 690.56 377.42 L 678.19 377.42 Q 678.34 380.16 679.73 381.61 Q 681.12 383.06 683.20 383.06 Q 684.75 383.06 685.84 382.25 Q 686.94 381.44 687.58 379.66 z M 678.34 375.11 L 687.61 375.11 Q 687.42 373.02 686.55 371.97 Q 685.20 370.34 683.06 370.34 Q 681.12 370.34 679.80 371.64 Q 678.48 372.94 678.34 375.11 z M 693.95 385.00 L 693.95 362.09 L 696.77 362.09 L 696.77 385.00 L 693.95 385.00 z M 701.06 385.00 L 701.06 362.09 L 703.88 362.09 L 703.88 385.00 L 701.06 385.00 z M 719.11 385.00 L 719.11 382.56 Q 717.17 385.38 713.84 385.38 Q 712.38 385.38 711.10 384.81 Q 709.83 384.25 709.21 383.40 Q 708.59 382.55 708.34 381.31 Q 708.17 380.48 708.17 378.69 L 708.17 368.41 L 710.98 368.41 L 710.98 377.61 Q 710.98 379.81 711.16 380.58 Q 711.42 381.69 712.28 382.32 Q 713.14 382.95 714.41 382.95 Q 715.67 382.95 716.78 382.30 Q 717.89 381.66 718.35 380.54 Q 718.81 379.42 718.81 377.30 L 718.81 368.41 L 721.62 368.41 L 721.62 385.00 L 719.11 385.00 z M 725.97 385.00 L 725.97 362.09 L 728.78 362.09 L 728.78 385.00 L 725.97 385.00 z M 744.50 379.66 L 747.41 380.02 Q 746.72 382.56 744.86 383.97 Q 743.00 385.38 740.11 385.38 Q 736.47 385.38 734.34 383.13 Q 732.20 380.89 732.20 376.84 Q 732.20 372.66 734.36 370.34 Q 736.52 368.03 739.95 368.03 Q 743.28 368.03 745.39 370.30 Q 747.50 372.56 747.50 376.67 Q 747.50 376.92 747.48 377.42 L 735.11 377.42 Q 735.27 380.16 736.66 381.61 Q 738.05 383.06 740.12 383.06 Q 741.67 383.06 742.77 382.25 Q 743.86 381.44 744.50 379.66 z M 735.27 375.11 L 744.53 375.11 Q 744.34 373.02 743.47 371.97 Q 742.12 370.34 739.98 370.34 Q 738.05 370.34 736.73 371.64 Q 735.41 372.94 735.27 375.11 z M 760.75 385.00 L 757.94 385.00 L 757.94 367.08 Q 756.92 368.05 755.27 369.02 Q 753.62 369.98 752.31 370.47 L 752.31 367.75 Q 754.67 366.64 756.44 365.06 Q 758.20 363.48 758.94 362.00 L 760.75 362.00 L 760.75 385.00 z"/>
<title>Cellule1&#xa;de coordonnées&#xa;(i1 ; j1)</title>
<desc>texte1 = “Cellule1&#xa;de coordonnées&#xa;(i1 ; j1)”</desc>

</g> <!-- drawing style -->
</g> <!-- clip11 -->
</g> <!-- transform -->
<g transform="matrix(1.0000, 0.0000, 0.0000, 1.0000, -220.00, -142.00)">
<clipPath id="clipfe34a6ee-9527-4708-9b0b-775cfbbc3cbf">
  <path d="M 220.00 142.00 L 220.00 694.00 L 1037.0 694.00 L 1037.0 142.00 z"/>
</clipPath>
<g clip-path="url(#clip12)">
<g fill-opacity="1.0000" fill-rule="nonzero" stroke="none" fill="#000000">
  <path d="M 663.88 433.00 L 663.88 430.91 Q 662.30 433.38 659.23 433.38 Q 657.25 433.38 655.59 432.28 Q 653.92 431.19 653.01 429.23 Q 652.09 427.27 652.09 424.72 Q 652.09 422.23 652.92 420.21 Q 653.75 418.19 655.41 417.11 Q 657.06 416.03 659.11 416.03 Q 660.61 416.03 661.78 416.66 Q 662.95 417.30 663.69 418.31 L 663.69 410.09 L 666.48 410.09 L 666.48 433.00 L 663.88 433.00 z M 654.98 424.72 Q 654.98 427.91 656.33 429.48 Q 657.67 431.06 659.50 431.06 Q 661.34 431.06 662.63 429.55 Q 663.92 428.05 663.92 424.95 Q 663.92 421.55 662.61 419.95 Q 661.30 418.36 659.38 418.36 Q 657.50 418.36 656.24 419.89 Q 654.98 421.42 654.98 424.72 z M 682.27 427.66 L 685.17 428.02 Q 684.48 430.56 682.62 431.97 Q 680.77 433.38 677.88 433.38 Q 674.23 433.38 672.10 431.13 Q 669.97 428.89 669.97 424.84 Q 669.97 420.66 672.12 418.34 Q 674.28 416.03 677.72 416.03 Q 681.05 416.03 683.16 418.30 Q 685.27 420.56 685.27 424.67 Q 685.27 424.92 685.25 425.42 L 672.88 425.42 Q 673.03 428.16 674.42 429.61 Q 675.81 431.06 677.89 431.06 Q 679.44 431.06 680.53 430.25 Q 681.62 429.44 682.27 427.66 z M 673.03 423.11 L 682.30 423.11 Q 682.11 421.02 681.23 419.97 Q 679.89 418.34 677.75 418.34 Q 675.81 418.34 674.49 419.64 Q 673.17 420.94 673.03 423.11 z M 708.42 426.92 L 711.19 427.28 Q 710.73 430.14 708.87 431.76 Q 707.00 433.38 704.28 433.38 Q 700.88 433.38 698.80 431.15 Q 696.73 428.92 696.73 424.77 Q 696.73 422.08 697.62 420.06 Q 698.52 418.05 700.34 417.04 Q 702.16 416.03 704.30 416.03 Q 707.00 416.03 708.72 417.40 Q 710.44 418.77 710.92 421.28 L 708.19 421.70 Q 707.80 420.03 706.80 419.19 Q 705.81 418.34 704.41 418.34 Q 702.28 418.34 700.95 419.87 Q 699.62 421.39 699.62 424.69 Q 699.62 428.03 700.91 429.55 Q 702.19 431.06 704.25 431.06 Q 705.91 431.06 707.02 430.05 Q 708.12 429.03 708.42 426.92 z M 712.55 424.70 Q 712.55 420.09 715.11 417.88 Q 717.25 416.03 720.33 416.03 Q 723.75 416.03 725.92 418.27 Q 728.09 420.52 728.09 424.47 Q 728.09 427.67 727.13 429.51 Q 726.17 431.34 724.34 432.36 Q 722.50 433.38 720.33 433.38 Q 716.84 433.38 714.70 431.14 Q 712.55 428.91 712.55 424.70 z M 715.44 424.70 Q 715.44 427.89 716.83 429.48 Q 718.22 431.06 720.33 431.06 Q 722.42 431.06 723.81 429.47 Q 725.20 427.88 725.20 424.61 Q 725.20 421.53 723.80 419.95 Q 722.41 418.36 720.33 418.36 Q 718.22 418.36 716.83 419.94 Q 715.44 421.52 715.44 424.70 z M 730.34 424.70 Q 730.34 420.09 732.91 417.88 Q 735.05 416.03 738.12 416.03 Q 741.55 416.03 743.72 418.27 Q 745.89 420.52 745.89 424.47 Q 745.89 427.67 744.93 429.51 Q 743.97 431.34 742.13 432.36 Q 740.30 433.38 738.12 433.38 Q 734.64 433.38 732.49 431.14 Q 730.34 428.91 730.34 424.70 z M 733.23 424.70 Q 733.23 427.89 734.62 429.48 Q 736.02 431.06 738.12 431.06 Q 740.22 431.06 741.61 429.47 Q 743.00 427.88 743.00 424.61 Q 743.00 421.53 741.60 419.95 Q 740.20 418.36 738.12 418.36 Q 736.02 418.36 734.62 419.94 Q 733.23 421.52 733.23 424.70 z M 749.16 433.00 L 749.16 416.41 L 751.69 416.41 L 751.69 418.92 Q 752.66 417.16 753.48 416.59 Q 754.30 416.03 755.28 416.03 Q 756.70 416.03 758.17 416.94 L 757.20 419.55 Q 756.17 418.94 755.14 418.94 Q 754.22 418.94 753.48 419.49 Q 752.75 420.05 752.44 421.03 Q 751.97 422.53 751.97 424.31 L 751.97 433.00 L 749.16 433.00 z M 770.61 433.00 L 770.61 430.91 Q 769.03 433.38 765.97 433.38 Q 763.98 433.38 762.32 432.28 Q 760.66 431.19 759.74 429.23 Q 758.83 427.27 758.83 424.72 Q 758.83 422.23 759.66 420.21 Q 760.48 418.19 762.14 417.11 Q 763.80 416.03 765.84 416.03 Q 767.34 416.03 768.52 416.66 Q 769.69 417.30 770.42 418.31 L 770.42 410.09 L 773.22 410.09 L 773.22 433.00 L 770.61 433.00 z M 761.72 424.72 Q 761.72 427.91 763.06 429.48 Q 764.41 431.06 766.23 431.06 Q 768.08 431.06 769.37 429.55 Q 770.66 428.05 770.66 424.95 Q 770.66 421.55 769.34 419.95 Q 768.03 418.36 766.11 418.36 Q 764.23 418.36 762.98 419.89 Q 761.72 421.42 761.72 424.72 z M 776.59 424.70 Q 776.59 420.09 779.16 417.88 Q 781.30 416.03 784.38 416.03 Q 787.80 416.03 789.97 418.27 Q 792.14 420.52 792.14 424.47 Q 792.14 427.67 791.18 429.51 Q 790.22 431.34 788.38 432.36 Q 786.55 433.38 784.38 433.38 Q 780.89 433.38 778.74 431.14 Q 776.59 428.91 776.59 424.70 z M 779.48 424.70 Q 779.48 427.89 780.88 429.48 Q 782.27 431.06 784.38 431.06 Q 786.47 431.06 787.86 429.47 Q 789.25 427.88 789.25 424.61 Q 789.25 421.53 787.85 419.95 Q 786.45 418.36 784.38 418.36 Q 782.27 418.36 780.88 419.94 Q 779.48 421.52 779.48 424.70 z M 795.44 433.00 L 795.44 416.41 L 797.97 416.41 L 797.97 418.77 Q 799.80 416.03 803.25 416.03 Q 804.75 416.03 806.01 416.57 Q 807.27 417.11 807.89 417.98 Q 808.52 418.86 808.77 420.06 Q 808.92 420.84 808.92 422.80 L 808.92 433.00 L 806.11 433.00 L 806.11 422.91 Q 806.11 421.19 805.78 420.34 Q 805.45 419.48 804.62 418.98 Q 803.78 418.47 802.66 418.47 Q 800.86 418.47 799.55 419.61 Q 798.25 420.75 798.25 423.94 L 798.25 433.00 L 795.44 433.00 z M 813.23 433.00 L 813.23 416.41 L 815.77 416.41 L 815.77 418.77 Q 817.59 416.03 821.05 416.03 Q 822.55 416.03 823.80 416.57 Q 825.06 417.11 825.69 417.98 Q 826.31 418.86 826.56 420.06 Q 826.72 420.84 826.72 422.80 L 826.72 433.00 L 823.91 433.00 L 823.91 422.91 Q 823.91 421.19 823.58 420.34 Q 823.25 419.48 822.41 418.98 Q 821.58 418.47 820.45 418.47 Q 818.66 418.47 817.35 419.61 Q 816.05 420.75 816.05 423.94 L 816.05 433.00 L 813.23 433.00 z M 842.39 427.66 L 845.30 428.02 Q 844.61 430.56 842.75 431.97 Q 840.89 433.38 838.00 433.38 Q 834.36 433.38 832.23 431.13 Q 830.09 428.89 830.09 424.84 Q 830.09 420.66 832.25 418.34 Q 834.41 416.03 837.84 416.03 Q 841.17 416.03 843.28 418.30 Q 845.39 420.56 845.39 424.67 Q 845.39 424.92 845.38 425.42 L 833.00 425.42 Q 833.16 428.16 834.55 429.61 Q 835.94 431.06 838.02 431.06 Q 839.56 431.06 840.66 430.25 Q 841.75 429.44 842.39 427.66 z M 833.16 423.11 L 842.42 423.11 Q 842.23 421.02 841.36 419.97 Q 840.02 418.34 837.88 418.34 Q 835.94 418.34 834.62 419.64 Q 833.30 420.94 833.16 423.11 z M 835.59 414.00 L 837.67 409.62 L 841.36 409.62 L 837.92 414.00 L 835.59 414.00 z M 860.19 427.66 L 863.09 428.02 Q 862.41 430.56 860.55 431.97 Q 858.69 433.38 855.80 433.38 Q 852.16 433.38 850.02 431.13 Q 847.89 428.89 847.89 424.84 Q 847.89 420.66 850.05 418.34 Q 852.20 416.03 855.64 416.03 Q 858.97 416.03 861.08 418.30 Q 863.19 420.56 863.19 424.67 Q 863.19 424.92 863.17 425.42 L 850.80 425.42 Q 850.95 428.16 852.34 429.61 Q 853.73 431.06 855.81 431.06 Q 857.36 431.06 858.45 430.25 Q 859.55 429.44 860.19 427.66 z M 850.95 423.11 L 860.22 423.11 Q 860.03 421.02 859.16 419.97 Q 857.81 418.34 855.67 418.34 Q 853.73 418.34 852.41 419.64 Q 851.09 420.94 850.95 423.11 z M 865.50 428.05 L 868.28 427.61 Q 868.52 429.28 869.59 430.17 Q 870.66 431.06 872.58 431.06 Q 874.52 431.06 875.45 430.27 Q 876.39 429.48 876.39 428.42 Q 876.39 427.47 875.56 426.92 Q 874.98 426.55 872.69 425.97 Q 869.59 425.19 868.40 424.62 Q 867.20 424.05 866.59 423.04 Q 865.97 422.03 865.97 420.81 Q 865.97 419.70 866.48 418.76 Q 866.98 417.81 867.86 417.19 Q 868.52 416.70 869.65 416.37 Q 870.78 416.03 872.08 416.03 Q 874.03 416.03 875.51 416.59 Q 876.98 417.16 877.69 418.12 Q 878.39 419.08 878.66 420.69 L 875.91 421.06 Q 875.72 419.78 874.82 419.06 Q 873.92 418.34 872.28 418.34 Q 870.34 418.34 869.52 418.98 Q 868.69 419.62 868.69 420.48 Q 868.69 421.03 869.03 421.47 Q 869.38 421.92 870.11 422.22 Q 870.53 422.38 872.59 422.94 Q 875.58 423.73 876.76 424.24 Q 877.94 424.75 878.61 425.72 Q 879.28 426.69 879.28 428.12 Q 879.28 429.53 878.46 430.77 Q 877.64 432.02 876.09 432.70 Q 874.55 433.38 872.59 433.38 Q 869.36 433.38 867.66 432.03 Q 865.97 430.69 865.50 428.05 z"/>
<title>Cellule1&#xa;de coordonnées&#xa;(i1 ; j1)</title>
<desc>texte1 = “Cellule1&#xa;de coordonnées&#xa;(i1 ; j1)”</desc>

</g> <!-- drawing style -->
</g> <!-- clip12 -->
</g> <!-- transform -->
<g transform="matrix(1.0000, 0.0000, 0.0000, 1.0000, -220.00, -142.00)">
<clipPath id="clipb77e0873-de3d-45ff-a9b1-fbb1a6966bec">
  <path d="M 220.00 142.00 L 220.00 694.00 L 1037.0 694.00 L 1037.0 142.00 z"/>
</clipPath>
<g clip-path="url(#clip13)">
<g fill-opacity="1.0000" fill-rule="nonzero" stroke="none" fill="#000000">
  <path d="M 658.48 487.73 Q 656.16 484.80 654.55 480.86 Q 652.94 476.92 652.94 472.70 Q 652.94 468.98 654.14 465.58 Q 655.55 461.62 658.48 457.70 L 660.50 457.70 Q 658.61 460.95 658.00 462.34 Q 657.05 464.50 656.50 466.84 Q 655.83 469.77 655.83 472.72 Q 655.83 480.23 660.50 487.73 L 658.48 487.73 z M 663.78 461.33 L 663.78 458.09 L 666.59 458.09 L 666.59 461.33 L 663.78 461.33 z M 663.78 481.00 L 663.78 464.41 L 666.59 464.41 L 666.59 481.00 L 663.78 481.00 z M 680.69 481.00 L 677.88 481.00 L 677.88 463.08 Q 676.86 464.05 675.21 465.02 Q 673.56 465.98 672.25 466.47 L 672.25 463.75 Q 674.61 462.64 676.38 461.06 Q 678.14 459.48 678.88 458.00 L 680.69 458.00 L 680.69 481.00 z M 698.30 467.61 L 698.30 464.41 L 701.50 464.41 L 701.50 467.61 L 698.30 467.61 z M 698.30 481.00 L 698.30 477.80 L 701.50 477.80 L 701.50 481.00 Q 701.50 482.77 700.88 483.85 Q 700.25 484.94 698.89 485.53 L 698.11 484.33 Q 699.00 483.94 699.42 483.18 Q 699.84 482.42 699.89 481.00 L 698.30 481.00 z M 715.33 461.36 L 715.33 458.09 L 718.14 458.09 L 718.14 461.36 L 715.33 461.36 z M 711.77 487.44 L 712.30 485.05 Q 713.14 485.27 713.62 485.27 Q 714.48 485.27 714.91 484.70 Q 715.33 484.12 715.33 481.84 L 715.33 464.41 L 718.14 464.41 L 718.14 481.91 Q 718.14 484.97 717.34 486.17 Q 716.33 487.73 713.97 487.73 Q 712.83 487.73 711.77 487.44 z M 732.27 481.00 L 729.45 481.00 L 729.45 463.08 Q 728.44 464.05 726.79 465.02 Q 725.14 465.98 723.83 466.47 L 723.83 463.75 Q 726.19 462.64 727.95 461.06 Q 729.72 459.48 730.45 458.00 L 732.27 458.00 L 732.27 481.00 z M 742.09 487.73 L 740.08 487.73 Q 744.75 480.23 744.75 472.72 Q 744.75 469.78 744.08 466.89 Q 743.55 464.55 742.59 462.39 Q 741.98 460.98 740.08 457.70 L 742.09 457.70 Q 745.03 461.62 746.44 465.58 Q 747.64 468.98 747.64 472.70 Q 747.64 476.92 746.02 480.86 Q 744.41 484.80 742.09 487.73 z"/>
<title>Cellule1&#xa;de coordonnées&#xa;(i1 ; j1)</title>
<desc>texte1 = “Cellule1&#xa;de coordonnées&#xa;(i1 ; j1)”</desc>

</g> <!-- drawing style -->
</g> <!-- clip13 -->
</g> <!-- transform -->
<g transform="matrix(1.0000, 0.0000, 0.0000, 1.0000, -220.00, -142.00)">
<clipPath id="clipab5f9aa6-9a79-4fdd-89da-69c0bdbb79d6">
  <path d="M 220.00 142.00 L 220.00 694.00 L 1037.0 694.00 L 1037.0 142.00 z"/>
</clipPath>
<g clip-path="url(#clip14)">
<g fill-opacity="1.0000" fill-rule="nonzero" stroke="none" fill="#000000">
  <path d="M 412.81 376.97 L 415.84 377.73 Q 414.89 381.47 412.41 383.43 Q 409.94 385.39 406.36 385.39 Q 402.66 385.39 400.34 383.88 Q 398.02 382.38 396.80 379.52 Q 395.59 376.66 395.59 373.38 Q 395.59 369.80 396.96 367.13 Q 398.33 364.47 400.85 363.09 Q 403.38 361.70 406.41 361.70 Q 409.84 361.70 412.19 363.45 Q 414.53 365.20 415.45 368.38 L 412.47 369.08 Q 411.67 366.58 410.16 365.44 Q 408.64 364.30 406.34 364.30 Q 403.70 364.30 401.93 365.56 Q 400.16 366.83 399.44 368.96 Q 398.72 371.09 398.72 373.36 Q 398.72 376.28 399.57 378.46 Q 400.42 380.64 402.22 381.72 Q 404.02 382.80 406.11 382.80 Q 408.66 382.80 410.42 381.33 Q 412.19 379.86 412.81 376.97 z M 430.58 379.66 L 433.48 380.02 Q 432.80 382.56 430.94 383.97 Q 429.08 385.38 426.19 385.38 Q 422.55 385.38 420.41 383.13 Q 418.28 380.89 418.28 376.84 Q 418.28 372.66 420.44 370.34 Q 422.59 368.03 426.03 368.03 Q 429.36 368.03 431.47 370.30 Q 433.58 372.56 433.58 376.67 Q 433.58 376.92 433.56 377.42 L 421.19 377.42 Q 421.34 380.16 422.73 381.61 Q 424.12 383.06 426.20 383.06 Q 427.75 383.06 428.84 382.25 Q 429.94 381.44 430.58 379.66 z M 421.34 375.11 L 430.61 375.11 Q 430.42 373.02 429.55 371.97 Q 428.20 370.34 426.06 370.34 Q 424.12 370.34 422.80 371.64 Q 421.48 372.94 421.34 375.11 z M 436.95 385.00 L 436.95 362.09 L 439.77 362.09 L 439.77 385.00 L 436.95 385.00 z M 444.06 385.00 L 444.06 362.09 L 446.88 362.09 L 446.88 385.00 L 444.06 385.00 z M 462.11 385.00 L 462.11 382.56 Q 460.17 385.38 456.84 385.38 Q 455.38 385.38 454.10 384.81 Q 452.83 384.25 452.21 383.40 Q 451.59 382.55 451.34 381.31 Q 451.17 380.48 451.17 378.69 L 451.17 368.41 L 453.98 368.41 L 453.98 377.61 Q 453.98 379.81 454.16 380.58 Q 454.42 381.69 455.28 382.32 Q 456.14 382.95 457.41 382.95 Q 458.67 382.95 459.78 382.30 Q 460.89 381.66 461.35 380.54 Q 461.81 379.42 461.81 377.30 L 461.81 368.41 L 464.62 368.41 L 464.62 385.00 L 462.11 385.00 z M 468.97 385.00 L 468.97 362.09 L 471.78 362.09 L 471.78 385.00 L 468.97 385.00 z M 487.50 379.66 L 490.41 380.02 Q 489.72 382.56 487.86 383.97 Q 486.00 385.38 483.11 385.38 Q 479.47 385.38 477.34 383.13 Q 475.20 380.89 475.20 376.84 Q 475.20 372.66 477.36 370.34 Q 479.52 368.03 482.95 368.03 Q 486.28 368.03 488.39 370.30 Q 490.50 372.56 490.50 376.67 Q 490.50 376.92 490.48 377.42 L 478.11 377.42 Q 478.27 380.16 479.66 381.61 Q 481.05 383.06 483.12 383.06 Q 484.67 383.06 485.77 382.25 Q 486.86 381.44 487.50 379.66 z M 478.27 375.11 L 487.53 375.11 Q 487.34 373.02 486.47 371.97 Q 485.12 370.34 482.98 370.34 Q 481.05 370.34 479.73 371.64 Q 478.41 372.94 478.27 375.11 z M 507.94 382.30 L 507.94 385.00 L 492.80 385.00 Q 492.77 383.98 493.12 383.05 Q 493.70 381.50 494.98 380.00 Q 496.25 378.50 498.66 376.53 Q 502.39 373.47 503.70 371.68 Q 505.02 369.89 505.02 368.30 Q 505.02 366.62 503.82 365.48 Q 502.62 364.33 500.70 364.33 Q 498.67 364.33 497.45 365.55 Q 496.23 366.77 496.22 368.92 L 493.33 368.62 Q 493.62 365.39 495.56 363.70 Q 497.50 362.00 500.77 362.00 Q 504.06 362.00 505.98 363.83 Q 507.91 365.66 507.91 368.36 Q 507.91 369.73 507.34 371.06 Q 506.78 372.39 505.48 373.86 Q 504.17 375.33 501.14 377.89 Q 498.61 380.02 497.89 380.77 Q 497.17 381.53 496.70 382.30 L 507.94 382.30 z"/>
<title>Cellule2&#xa;de coordonnées&#xa;(i2 ; j2)</title>
<desc>texte1_{1} = “Cellule2&#xa;de coordonnées&#xa;(i2 ; j2)”</desc>

</g> <!-- drawing style -->
</g> <!-- clip14 -->
</g> <!-- transform -->
<g transform="matrix(1.0000, 0.0000, 0.0000, 1.0000, -220.00, -142.00)">
<clipPath id="clip0616315b-9be3-4100-a966-bb4e423c0592">
  <path d="M 220.00 142.00 L 220.00 694.00 L 1037.0 694.00 L 1037.0 142.00 z"/>
</clipPath>
<g clip-path="url(#clip15)">
<g fill-opacity="1.0000" fill-rule="nonzero" stroke="none" fill="#000000">
  <path d="M 406.88 433.00 L 406.88 430.91 Q 405.30 433.38 402.23 433.38 Q 400.25 433.38 398.59 432.28 Q 396.92 431.19 396.01 429.23 Q 395.09 427.27 395.09 424.72 Q 395.09 422.23 395.92 420.21 Q 396.75 418.19 398.41 417.11 Q 400.06 416.03 402.11 416.03 Q 403.61 416.03 404.78 416.66 Q 405.95 417.30 406.69 418.31 L 406.69 410.09 L 409.48 410.09 L 409.48 433.00 L 406.88 433.00 z M 397.98 424.72 Q 397.98 427.91 399.33 429.48 Q 400.67 431.06 402.50 431.06 Q 404.34 431.06 405.63 429.55 Q 406.92 428.05 406.92 424.95 Q 406.92 421.55 405.61 419.95 Q 404.30 418.36 402.38 418.36 Q 400.50 418.36 399.24 419.89 Q 397.98 421.42 397.98 424.72 z M 425.27 427.66 L 428.17 428.02 Q 427.48 430.56 425.62 431.97 Q 423.77 433.38 420.88 433.38 Q 417.23 433.38 415.10 431.13 Q 412.97 428.89 412.97 424.84 Q 412.97 420.66 415.12 418.34 Q 417.28 416.03 420.72 416.03 Q 424.05 416.03 426.16 418.30 Q 428.27 420.56 428.27 424.67 Q 428.27 424.92 428.25 425.42 L 415.88 425.42 Q 416.03 428.16 417.42 429.61 Q 418.81 431.06 420.89 431.06 Q 422.44 431.06 423.53 430.25 Q 424.62 429.44 425.27 427.66 z M 416.03 423.11 L 425.30 423.11 Q 425.11 421.02 424.23 419.97 Q 422.89 418.34 420.75 418.34 Q 418.81 418.34 417.49 419.64 Q 416.17 420.94 416.03 423.11 z M 451.42 426.92 L 454.19 427.28 Q 453.73 430.14 451.87 431.76 Q 450.00 433.38 447.28 433.38 Q 443.88 433.38 441.80 431.15 Q 439.73 428.92 439.73 424.77 Q 439.73 422.08 440.62 420.06 Q 441.52 418.05 443.34 417.04 Q 445.16 416.03 447.30 416.03 Q 450.00 416.03 451.72 417.40 Q 453.44 418.77 453.92 421.28 L 451.19 421.70 Q 450.80 420.03 449.80 419.19 Q 448.81 418.34 447.41 418.34 Q 445.28 418.34 443.95 419.87 Q 442.62 421.39 442.62 424.69 Q 442.62 428.03 443.91 429.55 Q 445.19 431.06 447.25 431.06 Q 448.91 431.06 450.02 430.05 Q 451.12 429.03 451.42 426.92 z M 455.55 424.70 Q 455.55 420.09 458.11 417.88 Q 460.25 416.03 463.33 416.03 Q 466.75 416.03 468.92 418.27 Q 471.09 420.52 471.09 424.47 Q 471.09 427.67 470.13 429.51 Q 469.17 431.34 467.34 432.36 Q 465.50 433.38 463.33 433.38 Q 459.84 433.38 457.70 431.14 Q 455.55 428.91 455.55 424.70 z M 458.44 424.70 Q 458.44 427.89 459.83 429.48 Q 461.22 431.06 463.33 431.06 Q 465.42 431.06 466.81 429.47 Q 468.20 427.88 468.20 424.61 Q 468.20 421.53 466.80 419.95 Q 465.41 418.36 463.33 418.36 Q 461.22 418.36 459.83 419.94 Q 458.44 421.52 458.44 424.70 z M 473.34 424.70 Q 473.34 420.09 475.91 417.88 Q 478.05 416.03 481.12 416.03 Q 484.55 416.03 486.72 418.27 Q 488.89 420.52 488.89 424.47 Q 488.89 427.67 487.93 429.51 Q 486.97 431.34 485.13 432.36 Q 483.30 433.38 481.12 433.38 Q 477.64 433.38 475.49 431.14 Q 473.34 428.91 473.34 424.70 z M 476.23 424.70 Q 476.23 427.89 477.62 429.48 Q 479.02 431.06 481.12 431.06 Q 483.22 431.06 484.61 429.47 Q 486.00 427.88 486.00 424.61 Q 486.00 421.53 484.60 419.95 Q 483.20 418.36 481.12 418.36 Q 479.02 418.36 477.62 419.94 Q 476.23 421.52 476.23 424.70 z M 492.16 433.00 L 492.16 416.41 L 494.69 416.41 L 494.69 418.92 Q 495.66 417.16 496.48 416.59 Q 497.30 416.03 498.28 416.03 Q 499.70 416.03 501.17 416.94 L 500.20 419.55 Q 499.17 418.94 498.14 418.94 Q 497.22 418.94 496.48 419.49 Q 495.75 420.05 495.44 421.03 Q 494.97 422.53 494.97 424.31 L 494.97 433.00 L 492.16 433.00 z M 513.61 433.00 L 513.61 430.91 Q 512.03 433.38 508.97 433.38 Q 506.98 433.38 505.32 432.28 Q 503.66 431.19 502.74 429.23 Q 501.83 427.27 501.83 424.72 Q 501.83 422.23 502.66 420.21 Q 503.48 418.19 505.14 417.11 Q 506.80 416.03 508.84 416.03 Q 510.34 416.03 511.52 416.66 Q 512.69 417.30 513.42 418.31 L 513.42 410.09 L 516.22 410.09 L 516.22 433.00 L 513.61 433.00 z M 504.72 424.72 Q 504.72 427.91 506.06 429.48 Q 507.41 431.06 509.23 431.06 Q 511.08 431.06 512.37 429.55 Q 513.66 428.05 513.66 424.95 Q 513.66 421.55 512.34 419.95 Q 511.03 418.36 509.11 418.36 Q 507.23 418.36 505.98 419.89 Q 504.72 421.42 504.72 424.72 z M 519.59 424.70 Q 519.59 420.09 522.16 417.88 Q 524.30 416.03 527.38 416.03 Q 530.80 416.03 532.97 418.27 Q 535.14 420.52 535.14 424.47 Q 535.14 427.67 534.18 429.51 Q 533.22 431.34 531.38 432.36 Q 529.55 433.38 527.38 433.38 Q 523.89 433.38 521.74 431.14 Q 519.59 428.91 519.59 424.70 z M 522.48 424.70 Q 522.48 427.89 523.88 429.48 Q 525.27 431.06 527.38 431.06 Q 529.47 431.06 530.86 429.47 Q 532.25 427.88 532.25 424.61 Q 532.25 421.53 530.85 419.95 Q 529.45 418.36 527.38 418.36 Q 525.27 418.36 523.88 419.94 Q 522.48 421.52 522.48 424.70 z M 538.44 433.00 L 538.44 416.41 L 540.97 416.41 L 540.97 418.77 Q 542.80 416.03 546.25 416.03 Q 547.75 416.03 549.01 416.57 Q 550.27 417.11 550.89 417.98 Q 551.52 418.86 551.77 420.06 Q 551.92 420.84 551.92 422.80 L 551.92 433.00 L 549.11 433.00 L 549.11 422.91 Q 549.11 421.19 548.78 420.34 Q 548.45 419.48 547.62 418.98 Q 546.78 418.47 545.66 418.47 Q 543.86 418.47 542.55 419.61 Q 541.25 420.75 541.25 423.94 L 541.25 433.00 L 538.44 433.00 z M 556.23 433.00 L 556.23 416.41 L 558.77 416.41 L 558.77 418.77 Q 560.59 416.03 564.05 416.03 Q 565.55 416.03 566.80 416.57 Q 568.06 417.11 568.69 417.98 Q 569.31 418.86 569.56 420.06 Q 569.72 420.84 569.72 422.80 L 569.72 433.00 L 566.91 433.00 L 566.91 422.91 Q 566.91 421.19 566.58 420.34 Q 566.25 419.48 565.41 418.98 Q 564.58 418.47 563.45 418.47 Q 561.66 418.47 560.35 419.61 Q 559.05 420.75 559.05 423.94 L 559.05 433.00 L 556.23 433.00 z M 585.39 427.66 L 588.30 428.02 Q 587.61 430.56 585.75 431.97 Q 583.89 433.38 581.00 433.38 Q 577.36 433.38 575.23 431.13 Q 573.09 428.89 573.09 424.84 Q 573.09 420.66 575.25 418.34 Q 577.41 416.03 580.84 416.03 Q 584.17 416.03 586.28 418.30 Q 588.39 420.56 588.39 424.67 Q 588.39 424.92 588.38 425.42 L 576.00 425.42 Q 576.16 428.16 577.55 429.61 Q 578.94 431.06 581.02 431.06 Q 582.56 431.06 583.66 430.25 Q 584.75 429.44 585.39 427.66 z M 576.16 423.11 L 585.42 423.11 Q 585.23 421.02 584.36 419.97 Q 583.02 418.34 580.88 418.34 Q 578.94 418.34 577.62 419.64 Q 576.30 420.94 576.16 423.11 z M 578.59 414.00 L 580.67 409.62 L 584.36 409.62 L 580.92 414.00 L 578.59 414.00 z M 603.19 427.66 L 606.09 428.02 Q 605.41 430.56 603.55 431.97 Q 601.69 433.38 598.80 433.38 Q 595.16 433.38 593.02 431.13 Q 590.89 428.89 590.89 424.84 Q 590.89 420.66 593.05 418.34 Q 595.20 416.03 598.64 416.03 Q 601.97 416.03 604.08 418.30 Q 606.19 420.56 606.19 424.67 Q 606.19 424.92 606.17 425.42 L 593.80 425.42 Q 593.95 428.16 595.34 429.61 Q 596.73 431.06 598.81 431.06 Q 600.36 431.06 601.45 430.25 Q 602.55 429.44 603.19 427.66 z M 593.95 423.11 L 603.22 423.11 Q 603.03 421.02 602.16 419.97 Q 600.81 418.34 598.67 418.34 Q 596.73 418.34 595.41 419.64 Q 594.09 420.94 593.95 423.11 z M 608.50 428.05 L 611.28 427.61 Q 611.52 429.28 612.59 430.17 Q 613.66 431.06 615.58 431.06 Q 617.52 431.06 618.45 430.27 Q 619.39 429.48 619.39 428.42 Q 619.39 427.47 618.56 426.92 Q 617.98 426.55 615.69 425.97 Q 612.59 425.19 611.40 424.62 Q 610.20 424.05 609.59 423.04 Q 608.97 422.03 608.97 420.81 Q 608.97 419.70 609.48 418.76 Q 609.98 417.81 610.86 417.19 Q 611.52 416.70 612.65 416.37 Q 613.78 416.03 615.08 416.03 Q 617.03 416.03 618.51 416.59 Q 619.98 417.16 620.69 418.12 Q 621.39 419.08 621.66 420.69 L 618.91 421.06 Q 618.72 419.78 617.82 419.06 Q 616.92 418.34 615.28 418.34 Q 613.34 418.34 612.52 418.98 Q 611.69 419.62 611.69 420.48 Q 611.69 421.03 612.03 421.47 Q 612.38 421.92 613.11 422.22 Q 613.53 422.38 615.59 422.94 Q 618.58 423.73 619.76 424.24 Q 620.94 424.75 621.61 425.72 Q 622.28 426.69 622.28 428.12 Q 622.28 429.53 621.46 430.77 Q 620.64 432.02 619.09 432.70 Q 617.55 433.38 615.59 433.38 Q 612.36 433.38 610.66 432.03 Q 608.97 430.69 608.50 428.05 z"/>
<title>Cellule2&#xa;de coordonnées&#xa;(i2 ; j2)</title>
<desc>texte1_{1} = “Cellule2&#xa;de coordonnées&#xa;(i2 ; j2)”</desc>

</g> <!-- drawing style -->
</g> <!-- clip15 -->
</g> <!-- transform -->
<g transform="matrix(1.0000, 0.0000, 0.0000, 1.0000, -220.00, -142.00)">
<clipPath id="clip2ff292d1-fa65-4e8c-ace0-44e85768adc8">
  <path d="M 220.00 142.00 L 220.00 694.00 L 1037.0 694.00 L 1037.0 142.00 z"/>
</clipPath>
<g clip-path="url(#clip16)">
<g fill-opacity="1.0000" fill-rule="nonzero" stroke="none" fill="#000000">
  <path d="M 401.48 487.73 Q 399.16 484.80 397.55 480.86 Q 395.94 476.92 395.94 472.70 Q 395.94 468.98 397.14 465.58 Q 398.55 461.62 401.48 457.70 L 403.50 457.70 Q 401.61 460.95 401.00 462.34 Q 400.05 464.50 399.50 466.84 Q 398.83 469.77 398.83 472.72 Q 398.83 480.23 403.50 487.73 L 401.48 487.73 z M 406.78 461.33 L 406.78 458.09 L 409.59 458.09 L 409.59 461.33 L 406.78 461.33 z M 406.78 481.00 L 406.78 464.41 L 409.59 464.41 L 409.59 481.00 L 406.78 481.00 z M 427.88 478.30 L 427.88 481.00 L 412.73 481.00 Q 412.70 479.98 413.06 479.05 Q 413.64 477.50 414.91 476.00 Q 416.19 474.50 418.59 472.53 Q 422.33 469.47 423.64 467.68 Q 424.95 465.89 424.95 464.30 Q 424.95 462.62 423.76 461.48 Q 422.56 460.33 420.64 460.33 Q 418.61 460.33 417.39 461.55 Q 416.17 462.77 416.16 464.92 L 413.27 464.62 Q 413.56 461.39 415.50 459.70 Q 417.44 458.00 420.70 458.00 Q 424.00 458.00 425.92 459.83 Q 427.84 461.66 427.84 464.36 Q 427.84 465.73 427.28 467.06 Q 426.72 468.39 425.41 469.86 Q 424.11 471.33 421.08 473.89 Q 418.55 476.02 417.83 476.77 Q 417.11 477.53 416.64 478.30 L 427.88 478.30 z M 441.30 467.61 L 441.30 464.41 L 444.50 464.41 L 444.50 467.61 L 441.30 467.61 z M 441.30 481.00 L 441.30 477.80 L 444.50 477.80 L 444.50 481.00 Q 444.50 482.77 443.88 483.85 Q 443.25 484.94 441.89 485.53 L 441.11 484.33 Q 442.00 483.94 442.42 483.18 Q 442.84 482.42 442.89 481.00 L 441.30 481.00 z M 458.33 461.36 L 458.33 458.09 L 461.14 458.09 L 461.14 461.36 L 458.33 461.36 z M 454.77 487.44 L 455.30 485.05 Q 456.14 485.27 456.62 485.27 Q 457.48 485.27 457.91 484.70 Q 458.33 484.12 458.33 481.84 L 458.33 464.41 L 461.14 464.41 L 461.14 481.91 Q 461.14 484.97 460.34 486.17 Q 459.33 487.73 456.97 487.73 Q 455.83 487.73 454.77 487.44 z M 479.45 478.30 L 479.45 481.00 L 464.31 481.00 Q 464.28 479.98 464.64 479.05 Q 465.22 477.50 466.49 476.00 Q 467.77 474.50 470.17 472.53 Q 473.91 469.47 475.22 467.68 Q 476.53 465.89 476.53 464.30 Q 476.53 462.62 475.34 461.48 Q 474.14 460.33 472.22 460.33 Q 470.19 460.33 468.97 461.55 Q 467.75 462.77 467.73 464.92 L 464.84 464.62 Q 465.14 461.39 467.08 459.70 Q 469.02 458.00 472.28 458.00 Q 475.58 458.00 477.50 459.83 Q 479.42 461.66 479.42 464.36 Q 479.42 465.73 478.86 467.06 Q 478.30 468.39 476.99 469.86 Q 475.69 471.33 472.66 473.89 Q 470.12 476.02 469.41 476.77 Q 468.69 477.53 468.22 478.30 L 479.45 478.30 z M 485.09 487.73 L 483.08 487.73 Q 487.75 480.23 487.75 472.72 Q 487.75 469.78 487.08 466.89 Q 486.55 464.55 485.59 462.39 Q 484.98 460.98 483.08 457.70 L 485.09 457.70 Q 488.03 461.62 489.44 465.58 Q 490.64 468.98 490.64 472.70 Q 490.64 476.92 489.02 480.86 Q 487.41 484.80 485.09 487.73 z"/>
<title>Cellule2&#xa;de coordonnées&#xa;(i2 ; j2)</title>
<desc>texte1_{1} = “Cellule2&#xa;de coordonnées&#xa;(i2 ; j2)”</desc>

</g> <!-- drawing style -->
</g> <!-- clip16 -->
</g> <!-- transform -->
</g><!-- layer0 -->
</g> <!-- default stroke -->
</svg> <!-- bounding box -->
